plot-longitudinal-data
…
longformat_moodlevel <- moodlevel %>% gather(key = "timeline", value = "mood"  ,"core affect_1", "core affect_2", "core affect_3")
View(longformat_moodlevel)
## change Date to factor variables
library(forcats)
longformat_moodlevel$"Date" <-  as_factor(longformat_moodlevel$"Date")
longformat_moodlevel 

## # A tibble: 42 x 3
##    Date  timeline       mood
##    <fct> <chr>         <dbl>
##  1 0     core affect_1   1.8
##  2 1     core affect_1   2.6
##  3 2     core affect_1   2.3
##  4 3     core affect_1   2.7
##  5 4     core affect_1   3  
##  6 5     core affect_1   3.2
##  7 6     core affect_1   2.3
##  8 7     core affect_1   2.6
##  9 8     core affect_1   3.1
## 10 9     core affect_1   3.8
## #  with 32 more rows
…
